^C:\USERS\MAGSHIMIM\DESKTOP\SCHOOL\MAGSHIMIM\C++\LESSON4\LESSON4\LIB\STREAM\USAGE\FILESTREAM.CPP
/c /ZI /nologo /W3 /WX- /diagnostics:classic /sdl /Od /Oy- /D _MBCS /Gm /EHsc /RTC1 /MDd /GS /fp:precise /Zc:wchar_t /Zc:forScope /Zc:inline /Fo"DEBUG\\" /Fd"DEBUG\STREAM.PDB" /Gd /TP /analyze- C:\USERS\MAGSHIMIM\DESKTOP\SCHOOL\MAGSHIMIM\C++\LESSON4\LESSON4\LIB\STREAM\USAGE\FILESTREAM.CPP
^C:\USERS\MAGSHIMIM\DESKTOP\SCHOOL\MAGSHIMIM\C++\LESSON4\LESSON4\LIB\STREAM\USAGE\OUTSTREAM.CPP
/c /ZI /nologo /W3 /WX- /diagnostics:classic /sdl /Od /Oy- /D _MBCS /Gm /EHsc /RTC1 /MDd /GS /fp:precise /Zc:wchar_t /Zc:forScope /Zc:inline /Fo"DEBUG\\" /Fd"DEBUG\STREAM.PDB" /Gd /TP /analyze- C:\USERS\MAGSHIMIM\DESKTOP\SCHOOL\MAGSHIMIM\C++\LESSON4\LESSON4\LIB\STREAM\USAGE\OUTSTREAM.CPP
