^C:\USERS\MAGSHIMIM\DESKTOP\SCHOOL\MAGSHIMIM\C++\LESSON4\LESSON4\LIB\STREAM\USAGE\FILESTREAM.CPP|C:\USERS\MAGSHIMIM\DESKTOP\SCHOOL\MAGSHIMIM\C++\LESSON4\LESSON4\LIB\STREAM\USAGE\OUTSTREAM.CPP
C:\USERS\MAGSHIMIM\DESKTOP\SCHOOL\MAGSHIMIM\C++\LESSON4\LESSON4\LIB\STREAM\USAGE\STREAM\DEBUG\STREAM.PDB
C:\USERS\MAGSHIMIM\DESKTOP\SCHOOL\MAGSHIMIM\C++\LESSON4\LESSON4\LIB\STREAM\USAGE\STREAM\DEBUG\STREAM.IDB
C:\USERS\MAGSHIMIM\DESKTOP\SCHOOL\MAGSHIMIM\C++\LESSON4\LESSON4\LIB\STREAM\USAGE\STREAM\DEBUG\FILESTREAM.OBJ
C:\USERS\MAGSHIMIM\DESKTOP\SCHOOL\MAGSHIMIM\C++\LESSON4\LESSON4\LIB\STREAM\USAGE\STREAM\DEBUG\OUTSTREAM.OBJ
^C:\USERS\MAGSHIMIM\DESKTOP\SCHOOL\MAGSHIMIM\C++\LESSON4\LESSON4\LIB\STREAM\USAGE\FILESTREAM.CPP
C:\USERS\MAGSHIMIM\DESKTOP\SCHOOL\MAGSHIMIM\C++\LESSON4\LESSON4\LIB\STREAM\USAGE\STREAM\DEBUG\STREAM.PDB
^C:\USERS\MAGSHIMIM\DESKTOP\SCHOOL\MAGSHIMIM\C++\LESSON4\LESSON4\LIB\STREAM\USAGE\OUTSTREAM.CPP
C:\USERS\MAGSHIMIM\DESKTOP\SCHOOL\MAGSHIMIM\C++\LESSON4\LESSON4\LIB\STREAM\USAGE\STREAM\DEBUG\STREAM.PDB
