^C:\USERS\MAGSHIMIM\DESKTOP\SCHOOL\MAGSHIMIM\C++\LESSON4\LESSON4\LIB\STREAM\USAGE\SOURCE.CPP
C:\USERS\MAGSHIMIM\DESKTOP\SCHOOL\MAGSHIMIM\C++\LESSON4\LESSON4\LIB\STREAM\USAGE\DEBUG\VC141.PDB
C:\USERS\MAGSHIMIM\DESKTOP\SCHOOL\MAGSHIMIM\C++\LESSON4\LESSON4\LIB\STREAM\USAGE\DEBUG\VC141.IDB
C:\USERS\MAGSHIMIM\DESKTOP\SCHOOL\MAGSHIMIM\C++\LESSON4\LESSON4\LIB\STREAM\USAGE\DEBUG\SOURCE.OBJ
